{  
   "Notifications":[  
      {  
         "notificationNo":"N111",
         "Details":"Your initial nomination for Ref#12101 has been accepted"
      },
      {  
         "notificationNo":"N182",
         "Details":"Your initial nomination for Ref#62101 has been rejected"
      }
   ]
}